<svg width="17" height="17" stroke-width="2" viewBox="0 0 17 17" fill="none" xmlns="http://www.w3.org/2000/svg">
<path d="M2.72524 5.16668C3.87794 3.17401 6.03242 1.83334 8.50003 1.83334C12.1819 1.83334 15.1667 4.81811 15.1667 8.50001C15.1667 12.1819 12.1819 15.1667 8.50003 15.1667C6.03242 15.1667 3.87794 13.826 2.72524 11.8333M8.49998 11.1667L11.1666 8.50001M11.1666 8.50001L8.49998 5.83334M11.1666 8.50001H1.83331" stroke="#fff" stroke-linecap="round" stroke-linejoin="round"/>
</svg>
