<svg width="22" height="23" viewBox="0 0 22 23" fill="none" xmlns="http://www.w3.org/2000/svg">
<path d="M5.06 2.91992L3.63 4.82658C3.34676 5.20423 3.20515 5.39305 3.20843 5.55111C3.21129 5.68865 3.27578 5.81764 3.3841 5.90245C3.50858 5.99992 3.74461 5.99992 4.21667 5.99992H17.7833C18.2554 5.99992 18.4914 5.99992 18.6159 5.90245C18.7242 5.81764 18.7887 5.68865 18.7916 5.55111C18.7949 5.39305 18.6532 5.20423 18.37 4.82658L16.94 2.91992M5.06 2.91992C5.22133 2.70481 5.302 2.59725 5.40423 2.51968C5.49478 2.45097 5.59731 2.39971 5.7066 2.36849C5.83 2.33325 5.96445 2.33325 6.23333 2.33325H15.7667C16.0356 2.33325 16.17 2.33325 16.2934 2.36849C16.4027 2.39971 16.5052 2.45097 16.5958 2.51968C16.698 2.59725 16.7787 2.70481 16.94 2.91992M5.06 2.91992L3.33667 5.21769C3.11899 5.50792 3.01016 5.65304 2.93287 5.81285C2.86429 5.95465 2.81428 6.1047 2.78406 6.2593C2.75 6.43351 2.75 6.61491 2.75 6.97769L2.75 17.7332C2.75 18.76 2.75 19.2734 2.94982 19.6656C3.12559 20.0105 3.40605 20.291 3.75102 20.4668C4.14319 20.6666 4.65657 20.6666 5.68333 20.6666L16.3167 20.6666C17.3434 20.6666 17.8568 20.6666 18.249 20.4668C18.5939 20.291 18.8744 20.0105 19.0502 19.6656C19.25 19.2734 19.25 18.76 19.25 17.7332V6.9777C19.25 6.61491 19.25 6.43351 19.2159 6.2593C19.1857 6.10471 19.1357 5.95465 19.0671 5.81285C18.9898 5.65304 18.881 5.50793 18.6633 5.2177L16.94 2.91992M14.6667 9.66658C14.6667 10.639 14.2804 11.5717 13.5927 12.2593C12.9051 12.9469 11.9725 13.3332 11 13.3332C10.0275 13.3332 9.09491 12.9469 8.40728 12.2593C7.71964 11.5717 7.33333 10.639 7.33333 9.66658" stroke="white" stroke-width="2" stroke-linecap="round" stroke-linejoin="round"/>
</svg>
