<svg width="26" height="25" viewBox="0 0 26 25" fill="none" xmlns="http://www.w3.org/2000/svg">
<rect x="0.5" width="25" height="25" rx="4" fill="#4D9592"/>
<path d="M8.95 6.65L7.975 7.95C7.78188 8.20749 7.68533 8.33623 7.68757 8.44399C7.68952 8.53777 7.73349 8.62572 7.80734 8.68355C7.89221 8.75 8.05314 8.75 8.375 8.75H17.625C17.9469 8.75 18.1078 8.75 18.1927 8.68355C18.2665 8.62572 18.3105 8.53777 18.3124 8.44399C18.3147 8.33623 18.2181 8.20749 18.025 7.95L17.05 6.65M8.95 6.65C9.06 6.50333 9.115 6.43 9.1847 6.37711C9.24644 6.33026 9.31635 6.29531 9.39087 6.27403C9.475 6.25 9.56667 6.25 9.75 6.25H16.25C16.4333 6.25 16.525 6.25 16.6091 6.27403C16.6837 6.29531 16.7536 6.33026 16.8153 6.37711C16.885 6.43 16.94 6.50333 17.05 6.65M8.95 6.65L7.775 8.21667C7.62659 8.41455 7.55238 8.51349 7.49969 8.62245C7.45293 8.71914 7.41883 8.82145 7.39822 8.92685C7.375 9.04563 7.375 9.16931 7.375 9.41667L7.375 16.75C7.375 17.4501 7.375 17.8001 7.51124 18.0675C7.63108 18.3027 7.82231 18.4939 8.05751 18.6138C8.3249 18.75 8.67493 18.75 9.375 18.75L16.625 18.75C17.3251 18.75 17.6751 18.75 17.9425 18.6138C18.1777 18.4939 18.3689 18.3027 18.4888 18.0675C18.625 17.8001 18.625 17.4501 18.625 16.75V9.41667C18.625 9.16931 18.625 9.04563 18.6018 8.92685C18.5812 8.82145 18.5471 8.71914 18.5003 8.62245C18.4476 8.51349 18.3734 8.41455 18.225 8.21667L17.05 6.65M15.5 11.25C15.5 11.913 15.2366 12.5489 14.7678 13.0178C14.2989 13.4866 13.663 13.75 13 13.75C12.337 13.75 11.7011 13.4866 11.2322 13.0178C10.7634 12.5489 10.5 11.913 10.5 11.25" stroke="white" stroke-width="2" stroke-linecap="round" stroke-linejoin="round"/>
</svg>
