<svg width="187" height="17" viewBox="0 0 187 17" fill="none" xmlns="http://www.w3.org/2000/svg">
<path d="M2.99993 13.9867C31.4859 6.25067 107.61 -4.84716 184.217 12.65" stroke="#E7AD97" stroke-width="5" stroke-linecap="round"/>
</svg>
