<svg width="10" height="20" viewBox="0 0 10 20" fill="none" xmlns="http://www.w3.org/2000/svg">
<path d="M8.14996 3.29509H9.96164V0.139742C9.64908 0.0967442 8.57414 0 7.32226 0C4.71016 0 2.92081 1.643 2.92081 4.66274V7.44186H0.0383301V10.9693H2.92081V19.845H6.45487V10.9701H9.22076L9.65983 7.44269H6.45404V5.01251C6.45487 3.99297 6.72939 3.29509 8.14996 3.29509Z" fill="#4D9592"/>
</svg>
